CookerStat, GenerateAssetRegistry=28.420311, Initialize=53.320885, RunGuid=RunID96F470E44D01BFF96C6E2581A9AEAADA
DDCTransactionIdAADA777A4A4EAF1F76686B98FD5F1962_0, PutCachedData=, CacheKey=PhysX_1D9C17C451EA4FB88CB7A27536A65DB0_PhysXPC_A1F5EC634C9D31A04E1FABA4449B452__66FD5BA2C6ED0BD696D2CD4F5756652B41917573, StartTime=2016.05.29-22.31.39, HierarchicalDDC=, DataSize=840, Duration=5.333438, RunGuid=RunID96F470E44D01BFF96C6E2581A9AEAADA
SavePackageTransactionId7B5713FF44F37D8B24D5338A6AB1B4C2_0, Filename=../../../../../../Users/Назар/Desktop/May/Content/StarterContent/Architecture/Floor_400x400.uasset, AutoPackageBackupDelegate=84.029884, FlushAsyncLoading=0.014916, FlushStreamingFunc=0.058733, BlockTillAllRequestsFinished=0.094157, ResetLoadersForSaveUnMarkAllObjects=146.838348, TagPackageExports=0.082970, BeginCacheForCookedPlatformData=0.001866, SerializeImports=6.236795, GatherLocalizableTextData=41.670475, MarkNames=0.027500, SerializeSummary=19.284197, SerializeNames=10.968466, SerializeGatherableTextData=0.007458, BuildExportMap=1.295835, SortExportsNonSeekfree=0.024706, SortExportsSeekfreeConstructor=5.494721, SortExportsSeekfreeInner=17.605665, SortExportsSeekfree=0.008389, BuildDependencyMap=0.016782, SerializeImportMap=0.011187, SerializeExportMap=0.007458, SerializeDependencyMap=0.002332, SerializeStringAssetReferenceMap=0.005592, SaveThumbNailsAssetRegistryDataWorldLevelInfo=52.166752, SerializeExports=0.277344, SerializeBulkData=0.551432, MoveFile=4.519113, UnaccountedTime=187.578888, RunGuid=RunID96F470E44D01BFF96C6E2581A9AEAADA
DDCTransactionIdAADA777A4A4EAF1F76686B98FD5F1962_1, PutCachedData=, CacheKey=PhysX_1D9C17C451EA4FB88CB7A27536A65DB0_PhysXPC_14F9C82D44F99142598FC28AF6AF915C__1_0_13123_0, StartTime=2016.05.29-22.31.57, HierarchicalDDC=, DataSize=458, Duration=49.445957, RunGuid=RunID96F470E44D01BFF96C6E2581A9AEAADA
